[
    {
        "id": 141525495,
        "iid": 15,
        "project_id": 37777023,
        "title": "tem",
        "description": "",
        "state": "opened",
        "created_at": "2024-01-31T05:37:57.883Z",
        "updated_at": "2024-02-02T00:54:02.842Z",
        "closed_at": null,
        "closed_by": null,
        "labels":
        [],
        "milestone": null,
        "assignees":
        [],
        "author":
        {
            "id": 11809982,
            "username": "jay_mccure",
            "name": "Jay McCure",
            "state": "active",
            "locked": false,
            "avatar_url": "https://gitlab.com/uploads/-/system/user/avatar/11809982/avatar.png",
            "web_url": "https://gitlab.com/jay_mccure"
        },
        "type": "ISSUE",
        "assignee": null,
        "user_notes_count": 0,
        "merge_requests_count": 0,
        "upvotes": 0,
        "downvotes": 0,
        "due_date": null,
        "confidential": false,
        "discussion_locked": null,
        "issue_type": "issue",
        "web_url": "https://gitlab.com/jay_mccure/test2target/-/issues/15",
        "time_stats":
        {
            "time_estimate": 0,
            "total_time_spent": 0,
            "human_time_estimate": null,
            "human_total_time_spent": null
        },
        "task_completion_status":
        {
            "count": 0,
            "completed_count": 0
        },
        "weight": null,
        "blocking_issues_count": 0,
        "has_tasks": true,
        "task_status": "",
        "_links":
        {
            "self": "https://gitlab.com/api/v4/projects/37777023/issues/15",
            "notes": "https://gitlab.com/api/v4/projects/37777023/issues/15/notes",
            "award_emoji": "https://gitlab.com/api/v4/projects/37777023/issues/15/award_emoji",
            "project": "https://gitlab.com/api/v4/projects/37777023",
            "closed_as_duplicate_of": null
        },
        "references":
        {
            "short": "#15",
            "relative": "#15",
            "full": "jay_mccure/test2target#15"
        },
        "severity": "UNKNOWN",
        "moved_to_id": null,
        "service_desk_reply_to": null,
        "health_status": null
    }
]
